[
    {
        "description": "Simple course with a few colors names",
        "imageName": "/title.png",
        "name": "Colors",
        "tasks": [
            {
                "answer": "white",
                "images": [
                    "/color.png"
                ]
            },
            {
                "answer": "black",
                "images": [
                    "/1color.png"
                ]
            },
            {
                "answer": "yellow",
                "images": [
                    "/2color.png"
                ]
            },
            {
                "answer": "green",
                "images": [
                    "/4color.png"
                ]
            },
            {
                "answer": "blue",
                "images": [
                    "/5color.png"
                ]
            },
            {
                "answer": "red",
                "images": [
                    "/6color.png"
                ]
            },
            {
                "answer": "orange",
                "images": [
                    "/7color.png"
                ]
            },
            {
                "answer": "violet",
                "images": [
                    "/8color.png"
                ]
            },
            {
                "answer": "brown",
                "images": [
                    "/9color.png"
                ]
            },
            {
                "answer": "gray",
                "images": [
                    "/10color.png"
                ]
            },
            {
                "answer": "pink",
                "images": [
                    "/11color.png"
                ]
            }
        ],
        "uuid": "{452ce685-ae01-4ed3-be0a-1fec7492fcc1}"
    }
]
